{
	"total_exp":"总经验值",
	"next_exp":"距离升级",
	"how_upgrade":"如何升级",
	"cal_exp":"经验计算",
	"signin":"签到",
	"gift":"赠送礼物/座驾",
	"share":"分享",
	"sign_exp":"10经验/天",
	"gift_exp":"1经验/1金币",
	"share_exp":"5经验/次",
	"level_pri":"等级特权",
	"pri_detail":"特权详情",
	"pri_icon":"等级图标",
	"rank":"挂名靠前",
	"wait":"敬请期待",
	"open":"开启",
	"sign_succ":"签到成功，记得明天来哦～",
	"cal_exp_tit":"有效经验计算：",
	"cal_exp_desc":[{
					"id":1,
					"item":"每日签到获得10经验"
				},
				{
					"id":2,
					"item":"赠送礼物／座驾／发送世界消息每消耗1金币增加1经验，接受礼物每获得1金币增加1经验"
				},
				{
					"id":3,
					"item":"自己赠送自己礼物，只计算消耗金币所获得的经验"
				},
				{
					"id":4,
					"item":"每天前五次成功分享可获得经验值，每次5经验值"
				},
				{
					"id":5,
					"item":"分享每有一个人点击可获得5经验值，每天上限200经验值"
				},
				{
					"id":6,
					"item":"分享每有一个人成功注册可获得300经验值，每天无上限"
				}
			]
}
